{
  "leadsStates": [
    {
      "Status_id": 1,
      "action_task_id": 1,
      "Status_name": "New",
      "Tasks": [
        {
          "task_id": 1,
          "task_type": 1,
          "task_type_name": "Question",
          "Title": "Did you talk to the customer?",
          "Options": [
            {
              "option_id": 1.1,
              "value": "Yes, interested in buying a car",
              "icon_URL": "eighteen",
              "action_task_id": 2
            },
            {
              "option_id": 1.2,
              "value": "Yes, but not interested. Mark Closed",
              "icon_URL": "ninteen",
              "action_task_id": 3
            },
            {
              "option_id": 1.3,
              "value": "Couldn't speak to customer",
              "icon_URL": "twenty",
              "action_task_id": 4
            }
          ]
        },
        {
          "task_id": 2,
          "task_type": 1,
          "task_type_name": "Question",
          "Heading": "Customer is interested.",
          "Title": "What would you like to do next?",
          "Options": [
            {
              "option_id": 2.1,
              "value": "Schedule Walk in",
              "icon_URL": "five",
              "action_task_id": 5
            },
            {
              "option_id": 2.2,
              "value": "Schedule Follow up",
              "icon_URL": "four",
              "action_task_id": 6
            }
          ]
        },
        {
          "task_id": 10,
          "task_type": 1,
          "task_type_name": "Question",
          "Title": "Close lead?",
          "Heading": "Close lead?",
          "Options": [
            {
              "option_id": 10.1,
              "value": "Close",
              "action_task_id": 3
            },
            {
              "option_id": 10.2,
              "value": "Schedule Follow up",
              "action_task_id": 7
            }
          ]
        },
        {
          "task_id": 3,
          "task_type": 4,
          "task_type_name": "Close",
          "Title": "Reason for closing the lead?",
          "Options": [
            {
              "value": "Fake lead ",
              "option_id": 1,
              "EditText": true
            },
            {
              "value": "Customer bought another car",
              "option_id": 2,
              "EditText": true
            },
            {
              "value": "Customer not picking up the call",
              "option_id": 3,
              "EditText": true
            },
            {
              "value": "Outstation lead/Not possible to visit ",
              "option_id": 4,
              "EditText": true
            },
            {
              "value": "Desired car not available ",
              "option_id": 5,
              "EditText": true
            },
            {
              "value": "Price issue",
              "option_id": 6,
              "EditText": true
            },
            {
              "value": "Other",
              "option_id": 7,
              "EditText": true
            }
          ]
        },
        {
          "task_id": 4,
          "task_type": 1,
          "task_type_name": "Question",
          "Title": "What would you like to do next?",
          "Heading": "Follow Up not done.",
          "Options": [
            {
              "option_id": 4.1,
              "value": "Schedule Follow up",
              "icon_URL": "four",
              "action_task_id": 8
            },
            {
              "option_id": 4.2,
              "value": "Mark as Closed",
              "icon_URL": "eight",
              "action_task_id": 3
            }
          ]
        },
        {
          "task_id": 30,
          "task_type": 1,
          "task_type_name": "Question",
          "Title": "What would you like to share?",
          "icon_URL": "twentysix",
          "Options": [
            {
              "option_id": 1.1,
              "value": "Send Dealership Location",
              "icon_URL": "twentyfour",
              "action_task_id": 39
            },
            {
              "option_id": 1.2,
              "value": "Send Car Details",
              "icon_URL": "twentythree",
              "action_task_id": 38
            },
            {
              "option_id": 1.3,
              "value": "Share Car photos",
              "icon_URL": "twentyseven",
              "action_task_id": 41
            }
          ]
        },
        {
          "task_id": 31,
          "task_type": 1,
          "task_type_name": "Question",
          "Title": "What would you like to share?",
          "icon_URL": "twentysix",
          "Options": [
            {
              "option_id": 1.2,
              "value": "Send Car Details",
              "icon_URL": "twentythree",
              "action_task_id": 38
            },
            {
              "option_id": 1.3,
              "value": "Share Car photos",
              "icon_URL": "twentyseven",
              "action_task_id": 41
            }
          ]
        },
        {
          "task_id": 32,
          "task_type": 1,
          "task_type_name": "Question",
          "Title": "Send WhatsApp",
          "icon_URL": "twentysix",
          "Options": [
            {
              "option_id": 1.4,
              "value": "Send Welcome Message",
              "icon_URL": "twentyone",
              "action_task_id": 36
            }
          ]
        },
        {
          "task_id": 36,
          "task_type": 5,
          "task_type_name": "LeafNode",
          "task_perform": "Share",
          "shareType": "Welcome_message",
          "date": "",
          "time": "",
          "reminderdate": "",
          "remindertime": "",
          "comment": "",
          "leadRating": "",
          "setReminder": "",
          "closeReason": "",
          "amount": "",
          "confirmed": "",
          "NewLeadState": "Follow_up"
        },
        {
          "task_id": 37,
          "task_type": 5,
          "task_type_name": "LeafNode",
          "task_perform": "Share",
          "shareType": "Call_reminder",
          "date": "",
          "time": "",
          "reminderdate": "",
          "remindertime": "",
          "comment": "",
          "leadRating": "",
          "setReminder": "",
          "closeReason": "",
          "amount": "",
          "confirmed": "",
          "NewLeadState": "Follow_up"
        },
        {
          "task_id": 38,
          "task_type": 5,
          "task_type_name": "LeafNode",
          "task_perform": "Share",
          "shareType": "Car_details",
          "date": "",
          "time": "",
          "reminderdate": "",
          "remindertime": "",
          "comment": "",
          "leadRating": "",
          "setReminder": "",
          "closeReason": "",
          "amount": "",
          "confirmed": "",
          "NewLeadState": "WalkIn"
        },
        {
          "task_id": 39,
          "task_type": 5,
          "task_type_name": "LeafNode",
          "task_perform": "Share",
          "shareType": "Location",
          "date": "",
          "time": "",
          "reminderdate": "",
          "remindertime": "",
          "comment": "",
          "leadRating": "",
          "setReminder": "",
          "closeReason": "",
          "amount": "",
          "confirmed": "",
          "NewLeadState": "WalkIn"
        },
        {
          "task_id": 40,
          "task_type": 5,
          "task_type_name": "LeafNode",
          "task_perform": "Share",
          "shareType": "Walkin_reminder",
          "date": "",
          "time": "",
          "reminderdate": "",
          "remindertime": "",
          "comment": "",
          "leadRating": "",
          "setReminder": "",
          "closeReason": "",
          "amount": "",
          "confirmed": "",
          "NewLeadState": "WalkIn"
        },
        {
          "task_id": 41,
          "task_type": 5,
          "task_type_name": "LeafNode",
          "task_perform": "Share",
          "shareType": "Car_photos",
          "date": "",
          "time": "",
          "reminderdate": "",
          "remindertime": "",
          "comment": "",
          "leadRating": "",
          "setReminder": "",
          "closeReason": "",
          "amount": "",
          "confirmed": "",
          "NewLeadState": "Follow_up"
        },
        {
          "task_id": 5,
          "task_type": 2,
          "task_type_name": "WalkIn",
          "NewLeadState": "WalkIn",
          "Title": "Schedule Walk In date",
          "returnstatus": true,
          "return_status_name": "New",
          "return_task_id": "30"
        },
        {
          "task_id": 6,
          "task_type": 3,
          "task_type_name": "Follow_up",
          "NewLeadState": "Interested",
          "followUpType": "Lead_Rating",
          "Title": "Schedule Follow Up",
          "returnstatus": true,
          "return_status_name": "New",
          "return_task_id": "31"
        },
        {
          "task_id": 7,
          "task_type": 3,
          "task_type_name": "Follow_up",
          "NewLeadState": "Interested",
          "followUpType": "Customer_Offer",
          "Title": "Schedule Follow Up"
        },
        {
          "task_id": 8,
          "task_type": 3,
          "task_type_name": "Follow_up",
          "NewLeadState": "Follow_up",
          "followUpType": "Normal",
          "returnstatus": true,
          "return_status_name": "New",
          "return_task_id": "32",
          "Title": "Schedule Follow Up"
        }
      ]
    },
    {
      "Status_id": 2,
      "action_task_id": 1,
      "Status_name": "Follow_up",
      "Tasks": [
        {
          "task_id": 1,
          "task_type": 1,
          "task_type_name": "Question",
          "Title": "Was Follow Up done?",
          "Options": [
            {
              "option_id": 1.1,
              "value": "Yes, interested in buying a car",
              "icon_URL": "eighteen",
              "action_task_id": 2
            },
            {
              "option_id": 1.2,
              "value": "Yes, but not interested. Mark Closed",
              "icon_URL": "ninteen",
              "action_task_id": 3
            },
            {
              "option_id": 1.3,
              "value": "Couldn't speak to customer",
              "icon_URL": "twenty",
              "action_task_id": 4
            }
          ]
        },
        {
          "task_id": 2,
          "task_type": 1,
          "task_type_name": "Question",
          "Heading": "Customer is interested. ",
          "Title": "What would you like to do next?",
          "Options": [
            {
              "option_id": 2.1,
              "value": "Schedule Walk in",
              "icon_URL": "five",
              "action_task_id": 5
            },
            {
              "option_id": 2.2,
              "value": "Schedule Follow up",
              "icon_URL": "four",
              "action_task_id": 6
            }
          ]
        },
        {
          "task_id": 3,
          "task_type": 4,
          "task_type_name": "Close",
          "Title": "Reason for closing the lead?",
          "Options": [
            {
              "value": "Fake lead ",
              "option_id": 1,
              "EditText": true
            },
            {
              "value": "Customer bought another car",
              "option_id": 2,
              "EditText": true
            },
            {
              "value": "Customer not picking up the call",
              "option_id": 3,
              "EditText": true
            },
            {
              "value": "Outstation lead/Not possible to visit ",
              "option_id": 4,
              "EditText": true
            },
            {
              "value": "Desired car not available ",
              "option_id": 5,
              "EditText": true
            },
            {
              "value": "Price issue",
              "option_id": 6,
              "EditText": true
            },
            {
              "value": "Other",
              "option_id": 7,
              "EditText": true
            }
          ]
        },
        {
          "task_id": 4,
          "task_type": 1,
          "task_type_name": "Question",
          "Title": "What would you like to do next?",
          "Heading": "Follow Up not done.",
          "Options": [
            {
              "option_id": 4.1,
              "value": "Schedule Follow up",
              "icon_URL": "four",
              "action_task_id": 8
            },
            {
              "option_id": 4.2,
              "value": "Mark as Closed",
              "icon_URL": "eight",
              "action_task_id": 3
            }
          ]
        },
        {
          "task_id": 30,
          "task_type": 1,
          "task_type_name": "Question",
          "Title": "What would you like to share?",
          "icon_URL": "twentysix",



          "Options": [
            {
              "option_id": 1.1,
              "value": "Send Dealership Location",
              "icon_URL": "twentyfour",
              "action_task_id": 39
            },
            {
              "option_id": 1.2,
              "value": "Send Car Details",
              "icon_URL": "twentythree",
              "action_task_id": 38
            },
            {
              "option_id": 1.3,
              "value": "Share Car photos",
              "icon_URL": "twentyseven",
              "action_task_id": 41
            }
          ]
        },
        {
          "task_id": 31,
          "task_type": 1,
          "task_type_name": "Question",
          "Title": "What would you like to share?",
          "icon_URL": "twentysix",
          "Options": [
            {
              "option_id": 1.2,
              "value": "Send Car Details",
              "icon_URL": "twentythree",
              "action_task_id": 38
            },
            {
              "option_id": 1.3,
              "value": "Share Car photos",
              "icon_URL": "twentyseven",
              "action_task_id": 41
            }
          ]
        },
        {
          "task_id": 32,
          "task_type": 1,
          "task_type_name": "Question",
          "Title": "Could not speak to customer?",
          "icon_URL": "twentysix",
          "Options": [
            {
              "option_id": 1.4,
              "value": "Send Call Reminder",
              "icon_URL": "twentytwo",
              "action_task_id": 37
            }
          ]
        },
        {
          "task_id": 36,
          "task_type": 5,
          "task_type_name": "LeafNode",
          "task_perform": "Share",
          "shareType": "Welcome_message",
          "date": "",
          "time": "",
          "reminderdate": "",
          "remindertime": "",
          "comment": "",
          "leadRating": "",
          "setReminder": "",
          "closeReason": "",
          "amount": "",
          "confirmed": "",
          "NewLeadState": "Follow_up"
        },
        {
          "task_id": 37,
          "task_type": 5,
          "task_type_name": "LeafNode",
          "task_perform": "Share",
          "shareType": "Call_reminder",
          "date": "",
          "time": "",
          "reminderdate": "",
          "remindertime": "",
          "comment": "",
          "leadRating": "",
          "setReminder": "",
          "closeReason": "",
          "amount": "",
          "confirmed": "",
          "NewLeadState": "Follow_up"
        },
        {
          "task_id": 38,
          "task_type": 5,
          "task_type_name": "LeafNode",
          "task_perform": "Share",
          "shareType": "Car_details",
          "date": "",
          "time": "",
          "reminderdate": "",
          "remindertime": "",
          "comment": "",
          "leadRating": "",
          "setReminder": "",
          "closeReason": "",
          "amount": "",
          "confirmed": "",
          "NewLeadState": "WalkIn"
        },
        {
          "task_id": 39,
          "task_type": 5,
          "task_type_name": "LeafNode",
          "task_perform": "Share",
          "shareType": "Location",
          "date": "",
          "time": "",
          "reminderdate": "",
          "remindertime": "",
          "comment": "",
          "leadRating": "",
          "setReminder": "",
          "closeReason": "",
          "amount": "",
          "confirmed": "",
          "NewLeadState": "WalkIn"
        },
        {
          "task_id": 40,
          "task_type": 5,
          "task_type_name": "LeafNode",
          "task_perform": "Share",
          "shareType": "Walkin_reminder",
          "date": "",
          "time": "",
          "reminderdate": "",
          "remindertime": "",
          "comment": "",
          "leadRating": "",
          "setReminder": "",
          "closeReason": "",
          "amount": "",
          "confirmed": "",
          "NewLeadState": "WalkIn"
        },
        {
          "task_id": 41,
          "task_type": 5,
          "task_type_name": "LeafNode",
          "task_perform": "Share",
          "shareType": "Car_photos",
          "date": "",
          "time": "",
          "reminderdate": "",
          "remindertime": "",
          "comment": "",
          "leadRating": "",
          "setReminder": "",
          "closeReason": "",
          "amount": "",
          "confirmed": "",
          "NewLeadState": "Follow_up"
        },
        {
          "task_id": 5,
          "task_type": 2,
          "task_type_name": "WalkIn",
          "NewLeadState": "WalkIn",
          "Title": "Schedule Walk In date",
          "returnstatus": true,
          "return_status_name": "Follow_up",
          "return_task_id": "30"
        },
        {
          "task_id": 6,
          "task_type": 3,
          "task_type_name": "Follow_up",
          "NewLeadState": "Interested",
          "followUpType": "Lead_Rating",
          "Title": "Schedule Follow Up",
          "returnstatus": true,
          "return_status_name": "Follow_up",
          "return_task_id": "31"
        },
        {
          "task_id": 8,
          "task_type": 3,
          "task_type_name": "Follow_up",
          "NewLeadState": "Follow_up",
          "followUpType": "Normal",
          "returnstatus": true,
          "return_status_name": "Follow_up",
          "return_task_id": "32",
          "Title": "Schedule Follow Up"
        },
        {
          "task_id": 7,
          "task_type": 3,
          "task_type_name": "Follow_up",
          "NewLeadState": "Interested",
          "followUpType": "Customer_Offer",
          "Heading": "Schedule Follow Up",
          "Title": "Schedule Follow Up"
        }
      ]
    },
    {
      "Status_id": 3,
      "action_task_id": 1,
      "Status_name": "Interested",
      "Tasks": [
        {
          "task_id": 1,
          "task_type": 1,
          "task_type_name": "Question",
          "Title": "Was Follow Up done?",
          "Options": [
            {
              "option_id": 1.1,
              "value": "Yes, interested in buying a car",
              "icon_URL": "eighteen",
              "action_task_id": 2
            },
            {
              "option_id": 1.2,
              "value": "Yes, but not interested. Mark Closed",
              "icon_URL": "ninteen",
              "action_task_id": 3
            },
            {
              "option_id": 1.3,
              "value": "Couldn't speak to customer",
              "icon_URL": "twenty",
              "action_task_id": 4
            }
          ]
        },
        {
          "task_id": 2,
          "task_type": 1,
          "task_type_name": "Question",
          "Heading": "Customer is interested. ",
          "Title": "What would you like to do next?",
          "Options": [
            {
              "option_id": 2.1,
              "value": "Schedule Walk in",
              "icon_URL": "five",
              "action_task_id": 5
            },
            {
              "option_id": 2.2,
              "value": "Schedule Follow up",
              "icon_URL": "four",
              "action_task_id": 6
            }
          ]
        },
        {
          "task_id": 3,
          "task_type": 4,
          "task_type_name": "Close",
          "Title": "Reason for closing the lead?",
          "Options": [
            {
              "value": "Fake lead ",
              "option_id": 1,
              "EditText": true
            },
            {
              "value": "Customer bought another car",
              "option_id": 2,
              "EditText": true
            },
            {
              "value": "Customer not picking up the call",
              "option_id": 3,
              "EditText": true
            },
            {
              "value": "Outstation lead/Not possible to visit ",
              "option_id": 4,
              "EditText": true
            },
            {
              "value": "Desired car not available ",
              "option_id": 5,
              "EditText": true
            },
            {
              "value": "Price issue",
              "option_id": 6,
              "EditText": true
            },
            {
              "value": "Other",
              "option_id": 7,
              "EditText": true
            }
          ]
        },
        {
          "task_id": 4,
          "task_type": 1,
          "task_type_name": "Question",
          "Title": "What would you like to do next?",
          "Heading": "Follow up not done.",
          "Options": [
            {
              "option_id": 4.1,
              "value": "Schedule Follow up",
              "icon_URL": "four",
              "action_task_id": 8
            },
            {
              "option_id": 4.2,
              "value": "Mark as Closed",
              "icon_URL": "eight",
              "action_task_id": 3
            }
          ]
        },
        {
          "task_id": 30,
          "task_type": 1,
          "task_type_name": "Question",
          "Title": "What would you like to share?",
          "icon_URL": "twentysix",
          "Options": [
            {
              "option_id": 1.1,
              "value": "Send Dealership Location",
              "icon_URL": "twentyfour",
              "action_task_id": 39
            },
            {
              "option_id": 1.2,
              "value": "Send Car Details",
              "icon_URL": "twentythree",
              "action_task_id": 38
            },
            {
              "option_id": 1.3,
              "value": "Share Car photos",
              "icon_URL": "twentyseven",
              "action_task_id": 41
            }
          ]
        },
        {
          "task_id": 31,
          "task_type": 1,
          "task_type_name": "Question",
          "Title": "What would you like to share?",
          "icon_URL": "twentysix",
          "Options": [
            {
              "option_id": 1.2,
              "value": "Send Car Details",
              "icon_URL": "twentythree",
              "action_task_id": 38
            },
            {
              "option_id": 1.3,
              "value": "Share Car photos",
              "icon_URL": "twentyseven",
              "action_task_id": 41
            }
          ]
        },
        {
          "task_id": 32,
          "task_type": 1,
          "task_type_name": "Question",
          "Title": "Could not speak to customer?",
          "icon_URL": "twentysix",
          "Options": [
            {
              "option_id": 1.4,
              "value": "Send Call Reminder",
              "icon_URL": "twentytwo",
              "action_task_id": 37
            }
          ]
        },
        {
          "task_id": 36,
          "task_type": 5,
          "task_type_name": "LeafNode",
          "task_perform": "Share",
          "shareType": "Welcome_message",
          "date": "",
          "time": "",
          "reminderdate": "",
          "remindertime": "",
          "comment": "",
          "leadRating": "",
          "setReminder": "",
          "closeReason": "",
          "amount": "",
          "confirmed": "",
          "NewLeadState": "Follow_up"
        },
        {
          "task_id": 37,
          "task_type": 5,
          "task_type_name": "LeafNode",
          "task_perform": "Share",
          "shareType": "Call_reminder",
          "date": "",
          "time": "",
          "reminderdate": "",
          "remindertime": "",
          "comment": "",
          "leadRating": "",
          "setReminder": "",
          "closeReason": "",
          "amount": "",
          "confirmed": "",
          "NewLeadState": "Follow_up"
        },
        {
          "task_id": 38,
          "task_type": 5,
          "task_type_name": "LeafNode",
          "task_perform": "Share",
          "shareType": "Car_details",
          "date": "",
          "time": "",
          "reminderdate": "",
          "remindertime": "",
          "comment": "",
          "leadRating": "",
          "setReminder": "",
          "closeReason": "",
          "amount": "",
          "confirmed": "",
          "NewLeadState": "WalkIn"
        },
        {
          "task_id": 39,
          "task_type": 5,
          "task_type_name": "LeafNode",
          "task_perform": "Share",
          "shareType": "Location",
          "date": "",
          "time": "",
          "reminderdate": "",
          "remindertime": "",
          "comment": "",
          "leadRating": "",
          "setReminder": "",
          "closeReason": "",
          "amount": "",
          "confirmed": "",
          "NewLeadState": "WalkIn"
        },
        {
          "task_id": 40,
          "task_type": 5,
          "task_type_name": "LeafNode",
          "task_perform": "Share",
          "shareType": "Walkin_reminder",
          "date": "",
          "time": "",
          "reminderdate": "",
          "remindertime": "",
          "comment": "",
          "leadRating": "",
          "setReminder": "",
          "closeReason": "",
          "amount": "",
          "confirmed": "",
          "NewLeadState": "WalkIn"
        },
        {
          "task_id": 41,
          "task_type": 5,
          "task_type_name": "LeafNode",
          "task_perform": "Share",
          "shareType": "Car_photos",
          "date": "",
          "time": "",
          "reminderdate": "",
          "remindertime": "",
          "comment": "",
          "leadRating": "",
          "setReminder": "",
          "closeReason": "",
          "amount": "",
          "confirmed": "",
          "NewLeadState": "Follow_up"
        },
        {
          "task_id": 5,
          "task_type": 2,
          "task_type_name": "WalkIn",
          "NewLeadState": "WalkIn",
          "Title": "Schedule Walk In date",
          "returnstatus": true,
          "return_status_name": "Interested",
          "return_task_id": "30"
        },
        {
          "task_id": 6,
          "task_type": 3,
          "task_type_name": "Follow_up",
          "NewLeadState": "Interested",
          "followUpType": "Lead_Rating",
          "Title": "Schedule Follow Up",
          "returnstatus": true,
          "return_status_name": "Interested",
          "return_task_id": "31"
        },
        {
          "task_id": 8,
          "task_type": 3,
          "task_type_name": "Follow_up",
          "NewLeadState": "Interested",
          "followUpType": "Normal",
          "returnstatus": true,
          "return_status_name": "Interested",
          "return_task_id": "32",
          "Title": "Schedule Follow Up"
        },
        {
          "task_id": 7,
          "task_type": 3,
          "task_type_name": "Follow_up",
          "NewLeadState": "Interested",
          "followUpType": "Customer_Offer",
          "Heading": "Schedule Follow Up",
          "Title": "Schedule Follow Up"
        }
      ]
    },
    {
      "Status_id": 4,
      "BeforeWalkInTask": 1,
      "AfterWalkInTask": 9,
      "Status_name": "WalkIn",
      "Tasks": [
        {
          "task_id": 1,
          "task_type": 1,
          "task_type_name": "Question",
          "Title": "Is the appointment confirmed?",
          "Heading": "Customer is scheduled to visit the dealership.",
          "Options": [
            {
              "option_id": 1.1,
              "value": "Confirmed",
              "icon_URL": "nine",
              "action_task_id": 15
            },
            {
              "option_id": 1.2,
              "value": "Reschedule Walk In",
              "icon_URL": "ten",
              "action_task_id": 5
            },
            {
              "option_id": 1.3,
              "value": "Already walked in",
              "icon_URL": "thirteen",
              "action_task_id": 2
            },
            {
              "option_id": 1.4,
              "value": "Customer looking for other options",
              "icon_URL": "eleven",
              "action_task_id": 6
            },
            {
              "option_id": 1.5,
              "value": "Not Interested. Mark Closed",
              "icon_URL": "twelve",
              "action_task_id": 10
            },
            {
              "option_id": 1.6,
              "value": "Couldn't speak to customer",
              "icon_URL": "twenty",
              "action_task_id": 5
            }
          ]
        },
        {
          "task_id": 2,
          "task_type": 1,
          "task_type_name": "Question",
          "Heading": "What happened during walk in?",
          "Title": "Share Walk in Feedback",
          "Options": [
            {
              "option_id": 2.1,
              "value": "Given Offer on car",
              "action_task_id": 14
            },
            {
              "option_id": 2.2,
              "value": "Booked the car",
              "action_task_id": 11
            },
            {
              "option_id": 2.3,
              "value": "Bought the car",
              "action_task_id": 13
            },
            {
              "option_id": 2.4,
              "value": "Will visit again",
              "action_task_id": 7
            },
            {
              "option_id": 2.5,
              "value": "Talks are ongoing",
              "action_task_id": 7
            },
            {
              "option_id": 2.6,
              "value": "Customer not interested. Mark Closed",
              "action_task_id": 3
            }
          ]
        },
        {
          "task_id": 3,
          "task_type": 4,
          "task_type_name": "Close",
          "Title": "Why did customer change his mind?",
          "Options": [
            {
              "value": "Did not like the car ",
              "option_id": 8,
              "EditText": true
            },
            {
              "value": "Desired car not available ",
              "option_id": 9,
              "EditText": true
            },
            {
              "value": "Gave very low offer",
              "option_id": 10,
              "EditText": true
            },
            {
              "value": "Finance/Loan Issue",
              "option_id": 11,
              "EditText": true
            },
            {
              "value": "Purchased used car from somewhere else",
              "option_id": 12,
              "EditText": true
            },
            {
              "value": "Purchased new car",
              "option_id": 13,
              "EditText": true
            },
            {
              "value": "Other",
              "option_id": 14,
              "EditText": true
            }
          ]
        },
        {
          "task_id": 11,
          "task_type": 4,
          "task_type_name": "LeafNode",
          "task_perform": "Booked",
          "date": "",
          "time": "",
          "reminderdate": "",
          "remindertime": "",
          "comment": "",
          "leadRating": "",
          "setReminder": "false",
          "closeReason": "",
          "amount": "",
          "confirmed": "false",
          "NewLeadState": "Booked",
          "carselection": "1"
        },
        {
          "task_id": 13,
          "task_type": 4,
          "task_type_name": "LeafNode",
          "task_perform": "Converted",
          "date": "",
          "time": "",
          "reminderdate": "",
          "remindertime": "",
          "comment": "",
          "leadRating": "",
          "setReminder": "false",
          "closeReason": "",
          "amount": "",
          "confirmed": "false",
          "NewLeadState": "Converted",
          "carselection": "1"
        },
        {
          "task_id": 14,
          "task_type": 4,
          "task_type_name": "LeafNode",
          "task_perform": "CustomerOffer",
          "date": "",
          "time": "",
          "reminderdate": "",
          "remindertime": "",
          "comment": "",
          "leadRating": "",
          "setReminder": "false",
          "closeReason": "",
          "amount": "",
          "confirmed": "false",
          "NewLeadState": "CustomerOffer",
          "carselection": "1"
        },
        {
          "task_id": 15,
          "task_type": 4,
          "task_type_name": "LeafNode",
          "task_perform": "WalkInConfirmed",
          "date": "",
          "time": "",
          "reminderdate": "",
          "remindertime": "",
          "comment": "",
          "leadRating": "",
          "setReminder": "false",
          "closeReason": "",
          "amount": "",
          "confirmed": "true",
          "NewLeadState": "WalkIn",
          "carselection": ""
        },
        {
          "task_id": 4,
          "task_type": 1,
          "task_type_name": "Question",
          "Title": "Schedule Follow Up",
          "Options": [
            {
              "option_id": 4.1,
              "value": "Schedule Follow up",
              "icon_URL": "four",
              "action_task_id": 6
            }
          ]
        },
        {
          "task_id": 30,
          "task_type": 1,
          "task_type_name": "Question",
          "Title": "Confirm customer Walk in",
          "icon_URL": "twentysix",
          "Options": [
            {
              "option_id": 1.1,
              "value": "Send Walk in Reminder",
              "icon_URL": "twentyfive",
              "action_task_id": 40
            }
          ]
        },
        {
          "task_id": 40,
          "task_type": 5,
          "task_type_name": "LeafNode",
          "task_perform": "Share",
          "shareType": "Walkin_reminder",
          "date": "",
          "time": "",
          "reminderdate": "",
          "remindertime": "",
          "comment": "",
          "leadRating": "",
          "setReminder": "",
          "closeReason": "",
          "amount": "",
          "confirmed": "",
          "NewLeadState": "WalkIn"
        },
        {
          "task_id": 41,
          "task_type": 5,
          "task_type_name": "LeafNode",
          "task_perform": "Share",
          "shareType": "Car_photos",
          "date": "",
          "time": "",
          "reminderdate": "",
          "remindertime": "",
          "comment": "",
          "leadRating": "",
          "setReminder": "",
          "closeReason": "",
          "amount": "",
          "confirmed": "",
          "NewLeadState": "Follow_up"
        },
        {
          "task_id": 5,
          "task_type": 2,
          "task_type_name": "WalkIn",
          "NewLeadState": "WalkIn",
          "Title": "Schedule Walk In date",
          "returnstatus": true,
          "return_status_name": "WalkIn",
          "return_task_id": "30"
        },
        {
          "task_id": 6,
          "task_type": 3,
          "task_type_name": "Follow_up",
          "NewLeadState": "Interested",
          "followUpType": "Lead_Rating",
          "Title": "Schedule Follow Up"
        },
        {
          "task_id": 7,
          "task_type": 3,
          "task_type_name": "Follow_up",
          "NewLeadState": "WalkedIn",
          "followUpType": "Normal",
          "Title": "Schedule Follow Up"
        },
        {
          "task_id": 8,
          "task_type": 3,
          "task_type_name": "Follow_up",
          "NewLeadState": "Interested",
          "followUpType": "Normal",
          "Title": "Schedule Follow Up"
        },
        {
          "task_id": 9,
          "task_type": 1,
          "task_type_name": "Question",
          "Title": "Did the customer visit dealership?",
          "Options": [
            {
              "option_id": 2.1,
              "value": "Yes",
              "icon_URL": "six",
              "action_task_id": 2
            },
            {
              "option_id": 2.2,
              "value": "No",
              "icon_URL": "seven",
              "action_task_id": 12
            }
          ]
        },
        {
          "task_id": 12,
          "task_type": 1,
          "task_type_name": "Question",
          "Heading": "Customer didn't come.",
          "Title": "What would you like to do next?",
          "Options": [
            {
              "option_id": 2.1,
              "value": "Reschedule Walk In",
              "icon_URL": "ten",
              "action_task_id": 5
            },
            {
              "option_id": 2.2,
              "value": "Mark as Closed",
              "icon_URL": "eight",
              "action_task_id": 10
            }
          ]
        },
        {
          "task_id": 10,
          "task_type": 4,
          "task_type_name": "Close",
          "Title": "Reason for closing the lead?",
          "Options": [
            {
              "value": "Fake lead ",
              "option_id": 1,
              "EditText": true
            },
            {
              "value": "Customer bought another car",
              "option_id": 2,
              "EditText": true
            },
            {
              "value": "Customer not picking up the call",
              "option_id": 3,
              "EditText": true
            },
            {
              "value": "Outstation lead/Not possible to visit ",
              "option_id": 4,
              "EditText": true
            },
            {
              "value": "Desired car not available ",
              "option_id": 5,
              "EditText": true
            },
            {
              "value": "Price issue",
              "option_id": 6,
              "EditText": true
            },
            {
              "value": "Other",
              "option_id": 7,
              "EditText": true
            }
          ]
        }
      ]
    },
    {
      "Status_id": 5,
      "action_task_id": 1,
      "Status_name": "WalkedIn",
      "Tasks": [
        {
          "task_id": 1,
          "task_type": 1,
          "task_type_name": "Question",
          "Title": "Did customer buy the car?",
          "Options": [
            {
              "option_id": 2.1,
              "value": "Given Offer on car",
              "icon_URL": "fourteen",
              "action_task_id": 14
            },
            {
              "option_id": 2.2,
              "value": "Booked the car",
              "icon_URL": "sixteen",
              "action_task_id": 11
            },
            {
              "option_id": 2.3,
              "value": "Bought the car",
              "icon_URL": "fivteen",
              "action_task_id": 13
            },
            {
              "option_id": 2.4,
              "value": "Talks are ongoing",
              "icon_URL": "seventen",
              "action_task_id": 7
            },
            {
              "option_id": 2.5,
              "value": "Customer not interested. Mark Closed",
              "icon_URL": "twelve",
              "action_task_id": 3
            },
            {
              "option_id": 2.6,
              "value": "Couldn't speak to customer",
              "icon_URL": "twenty",
              "action_task_id": 7
            }
          ]
        },
        {
          "task_id": 3,
          "task_type": 4,
          "task_type_name": "Close",
          "Title": "Why did customer change his mind?",
          "Options": [
            {
              "value": "Did not like the car ",
              "option_id": 8,
              "EditText": true
            },
            {
              "value": "Desired car not available ",
              "option_id": 9,
              "EditText": true
            },
            {
              "value": "Gave very low offer",
              "option_id": 10,
              "EditText": true
            },
            {
              "value": "Finance/Loan Issue",
              "option_id": 11,
              "EditText": true
            },
            {
              "value": "Purchased used car from somewhere else",
              "option_id": 12,
              "EditText": true
            },
            {
              "value": "Purchased new car",
              "option_id": 13,
              "EditText": true
            },
            {
              "value": "Other",
              "option_id": 14,
              "EditText": true
            }
          ]
        },
        {
          "task_id": 7,
          "task_type": 3,
          "task_type_name": "Follow_up",
          "NewLeadState": "WalkedIn",
          "followUpType": "Normal",
          "Title": "Schedule Follow Up"
        },
        {
          "task_id": 11,
          "task_type": 4,
          "task_type_name": "LeafNode",
          "task_perform": "Booked",
          "date": "",
          "time": "",
          "reminderdate": "",
          "remindertime": "",
          "comment": "",
          "leadRating": "",
          "setReminder": "false",
          "closeReason": "",
          "amount": "",
          "confirmed": "false",
          "NewLeadState": "Booked",
          "carselection": "1"
        },
        {
          "task_id": 13,
          "task_type": 4,
          "task_type_name": "LeafNode",
          "task_perform": "Converted",
          "date": "",
          "time": "",
          "reminderdate": "",
          "remindertime": "",
          "comment": "",
          "leadRating": "",
          "setReminder": "false",
          "closeReason": "",
          "amount": "",
          "confirmed": "false",
          "NewLeadState": "Converted",
          "carselection": "1"
        },
        {
          "task_id": 14,
          "task_type": 4,
          "task_type_name": "LeafNode",
          "task_perform": "CustomerOffer",
          "date": "",
          "time": "",
          "reminderdate": "",
          "remindertime": "",
          "comment": "",
          "leadRating": "",
          "setReminder": "false",
          "closeReason": "",
          "amount": "",
          "confirmed": "false",
          "NewLeadState": "CustomerOffer",
          "carselection": "1"
        }
      ]
    },
    {
      "Status_id": 6,
      "action_task_id": 1,
      "Status_name": "CustomerOffer",
      "Tasks": [
        {
          "task_id": 1,
          "task_type": 1,
          "task_type_name": "Question",
          "Title": "Did customer buy the car?",
          "Options": [
            {
              "option_id": 2.1,
              "value": "Booked the car",
              "icon_URL": "sixteen",
              "action_task_id": 11
            },
            {
              "option_id": 2.2,
              "value": "Bought the car",
              "icon_URL": "fivteen",
              "action_task_id": 13
            },
            {
              "option_id": 2.3,
              "value": "Talks are ongoing",
              "icon_URL": "seventen",
              "action_task_id": 7
            },
            {
              "option_id": 2.4,
              "value": "Customer not interested. Mark Closed",
              "icon_URL": "twelve",
              "action_task_id": 3
            },
            {
              "option_id": 2.5,
              "value": "Couldn't speak to customer",
              "icon_URL": "twenty",
              "action_task_id": 7
            }
          ]
        },
        {
          "task_id": 3,
          "task_type": 4,
          "task_type_name": "Close",
          "Title": "Why did customer change his mind?",
          "Options": [
            {
              "value": "Did not like the car ",
              "option_id": 8,
              "EditText": true
            },
            {
              "value": "Desired car not available ",
              "option_id": 9,
              "EditText": true
            },
            {
              "value": "Gave very low offer",
              "option_id": 10,
              "EditText": true
            },
            {
              "value": "Finance/Loan Issue",
              "option_id": 11,
              "EditText": true
            },
            {
              "value": "Purchased used car from somewhere else",
              "option_id": 12,
              "EditText": true
            },
            {
              "value": "Purchased new car",
              "option_id": 13,
              "EditText": true
            },
            {
              "value": "Other",
              "option_id": 14,
              "EditText": true
            }
          ]
        },
        {
          "task_id": 7,
          "task_type": 3,
          "task_type_name": "Follow_up",
          "NewLeadState": "CustomerOffer",
          "followUpType": "Normal",
          "Title": "Schedule Follow Up"
        },
        {
          "task_id": 11,
          "task_type": 4,
          "task_type_name": "LeafNode",
          "task_perform": "Booked",
          "date": "",
          "time": "",
          "reminderdate": "",
          "remindertime": "",
          "comment": "",
          "leadRating": "",
          "setReminder": "false",
          "closeReason": "",
          "amount": "",
          "confirmed": "false",
          "NewLeadState": "Booked",
          "carselection": "1"
        },
        {
          "task_id": 14,
          "task_type": 4,
          "task_type_name": "LeafNode",
          "task_perform": "CustomerOffer",
          "date": "",
          "time": "",
          "reminderdate": "",
          "remindertime": "",
          "comment": "",
          "leadRating": "",
          "setReminder": "false",
          "closeReason": "",
          "amount": "",
          "confirmed": "false",
          "NewLeadState": "CustomerOffer",
          "carselection": "1"
        },
        {
          "task_id": 13,
          "task_type": 4,
          "task_type_name": "LeafNode",
          "task_perform": "Converted",
          "date": "",
          "time": "",
          "reminderdate": "",
          "remindertime": "",
          "comment": "",
          "leadRating": "",
          "setReminder": "false",
          "closeReason": "",
          "amount": "",
          "confirmed": "false",
          "NewLeadState": "Converted",
          "carselection": "1"
        }
      ]
    },
    {
      "Status_id": 7,
      "action_task_id": 1,
      "Status_name": "Booked",
      "Tasks": [
        {
          "task_id": 1,
          "task_type": 1,
          "task_type_name": "Question",
          "Title": "Did customer buy the car?",
          "Options": [
            {
              "option_id": 2.1,
              "value": "Bought the car",
              "icon_URL": "fivteen",
              "action_task_id": 13
            },
            {
              "option_id": 2.2,
              "value": "Not yet. Schedule Follow up",
              "icon_URL": "four",
              "action_task_id": 7
            },
            {
              "option_id": 2.3,
              "value": "Booking cancelled",
              "icon_URL": "eight",
              "action_task_id": 3
            },
            {
              "option_id": 2.4,
              "value": "Couldn't speak to customer",
              "icon_URL": "twenty",
              "action_task_id": 7
            }
          ]
        },
        {
          "task_id": 3,
          "task_type": 4,
          "task_type_name": "Close",
          "Title": "Why did customer change his mind?",
          "Options": [
            {
              "value": "Did not like the car ",
              "option_id": 8,
              "EditText": true
            },
            {
              "value": "Desired car not available ",
              "option_id": 9,
              "EditText": true
            },
            {
              "value": "Gave very low offer",
              "option_id": 10,
              "EditText": true
            },
            {
              "value": "Finance/Loan Issue",
              "option_id": 11,
              "EditText": true
            },
            {
              "value": "Purchased used car from somewhere else",
              "option_id": 12,
              "EditText": true
            },
            {
              "value": "Purchased new car",
              "option_id": 13,
              "EditText": true
            },
            {
              "value": "Other",
              "option_id": 14,
              "EditText": true
            }
          ]
        },
        {
          "task_id": 7,
          "task_type": 3,
          "task_type_name": "Follow_up",
          "NewLeadState": "Booked",
          "followUpType": "Normal",
          "Title": "Schedule Follow Up"
        },
        {
          "task_id": 13,
          "task_type": 4,
          "task_type_name": "LeafNode",
          "task_perform": "Converted",
          "date": "",
          "time": "",
          "reminderdate": "",
          "remindertime": "",
          "comment": "",
          "leadRating": "",
          "setReminder": "false",
          "closeReason": "",
          "amount": "",
          "confirmed": "false",
          "NewLeadState": "Converted",
          "carselection": "1"
        }
      ]
    },
    {
      "Status_id": 8,
      "action_task_id": 7,
      "Status_name": "AppBooked",
      "Tasks": [
        {
          "task_id": 7,
          "task_type": 1,
          "task_type_name": "Follow_up",
          "NewLeadState": "Booked",
          "followUpType": "Normal",
          "Title": "Schedule Follow Up"
        }
      ]
    },
    {
      "Status_id": 9,
      "action_task_id": 7,
      "Status_name": "AppOffer",
      "Tasks": [
        {
          "task_id": 7,
          "task_type": 1,
          "task_type_name": "Follow_up",
          "NewLeadState": "CustomerOffer",
          "followUpType": "Normal",
          "Title": "Schedule Follow Up"
        }
      ]
    },
    {
      "Status_id": 10,
      "action_task_id": 1,
      "Status_name": "Close",
      "Tasks": [
        {
          "task_id": 1,
          "task_type": 1,
          "task_type_name": "Question",
          "Title": "Reason for reopening the lead?",
          "Options": [
            {
              "option_id": 1.1,
              "value": "Customer is interested again",
              "icon_URL": "eighteen",
              "action_task_id": 7
            },
            {
              "option_id": 1.2,
              "value": "Will visit the dealership",
              "icon_URL": "five",
              "action_task_id": 5
            },
            {
              "option_id": 1.3,
              "value": "Given offer on car",
              "icon_URL": "fourteen",
              "action_task_id": 14
            },
            {
              "option_id": 1.3,
              "value": "Booked the car",
              "icon_URL": "sixteen",
              "action_task_id": 11
            },
            {
              "option_id": 1.3,
              "value": "Bought the car",
              "icon_URL": "fivteen",
              "action_task_id": 13
            }
          ]
        },
        {
          "task_id": 5,
          "task_type": 2,
          "task_type_name": "WalkIn",
          "NewLeadState": "WalkIn",
          "Title": "Schedule Walk In date"
        },
        {
          "task_id": 7,
          "task_type": 1,
          "task_type_name": "Follow_up",
          "NewLeadState": "Interested",
          "followUpType": "Lead_Rating",
          "Title": "Schedule Follow Up"
        },
        {
          "task_id": 11,
          "task_type": 4,
          "task_type_name": "LeafNode",
          "task_perform": "Booked",
          "date": "",
          "time": "",
          "reminderdate": "",
          "remindertime": "",
          "comment": "",
          "leadRating": "",
          "setReminder": "false",
          "closeReason": "",
          "amount": "",
          "confirmed": "false",
          "NewLeadState": "Booked",
          "carselection": "1"
        },
        {
          "task_id": 13,
          "task_type": 4,
          "task_type_name": "LeafNode",
          "task_perform": "Converted",
          "date": "",
          "time": "",
          "reminderdate": "",
          "remindertime": "",
          "comment": "",
          "leadRating": "",
          "setReminder": "false",
          "closeReason": "",
          "amount": "",
          "confirmed": "false",
          "NewLeadState": "Converted",
          "carselection": "1"
        },
        {
          "task_id": 14,
          "task_type": 4,
          "task_type_name": "LeafNode",
          "task_perform": "CustomerOffer",
          "date": "",
          "time": "",
          "reminderdate": "",
          "remindertime": "",
          "comment": "",
          "leadRating": "",
          "setReminder": "false",
          "closeReason": "",
          "amount": "",
          "confirmed": "false",
          "NewLeadState": "CustomerOffer",
          "carselection": "1"
        }
      ]
    }
  ]
}